^C:\USERS\JAVAJUMPER\SOURCE\REPOS\LAB16\TASK3\X64\DEBUG\TASK3.OBJ
C:\USERS\JAVAJUMPER\SOURCE\REPOS\LAB16\X64\DEBUG\TASK3.EXE
C:\USERS\JAVAJUMPER\SOURCE\REPOS\LAB16\TASK3\X64\DEBUG\TASK3.ILK
C:\USERS\JAVAJUMPER\SOURCE\REPOS\LAB16\X64\DEBUG\TASK3.PDB
