^C:\USERS\JAVAJUMPER\SOURCE\REPOS\LAB16\TASK 2\TASK 2.CPP
C:\USERS\JAVAJUMPER\SOURCE\REPOS\LAB16\TASK 2\X64\DEBUG\VC143.PDB
C:\USERS\JAVAJUMPER\SOURCE\REPOS\LAB16\TASK 2\X64\DEBUG\VC143.IDB
C:\USERS\JAVAJUMPER\SOURCE\REPOS\LAB16\TASK 2\X64\DEBUG\TASK 2.OBJ
